<svg width="16" height="28" viewBox="0 0 16 28" fill="none" xmlns="http://www.w3.org/2000/svg">
<path d="M15.745 14.9723C15.3439 14.1701 14.2743 13.5017 12.9374 14.7049C11.0657 16.1756 7.9907 16.1756 7.9907 16.1756C7.9907 16.1756 4.91572 16.1756 3.044 14.7049C1.57336 13.6354 0.637499 14.3038 0.236415 14.9723C-0.432057 16.3093 0.37011 16.9777 1.97444 18.0473C3.44508 18.9831 5.4505 19.3842 6.65375 19.5179L5.5842 20.5875C4.11356 22.0581 2.64292 23.5288 1.57336 24.5983C1.03858 25.2668 1.03858 26.2027 1.57336 26.7374L1.70705 27.0048C2.37553 27.6733 3.31139 27.6733 3.84617 27.0048L7.857 22.994C9.32764 24.4646 10.7983 25.9353 11.8678 27.0048C12.4026 27.6733 13.4722 27.6733 14.007 27.0048L14.1406 26.7374C14.8091 26.2027 14.8091 25.1331 14.1406 24.5983L10.1298 20.5875L9.32764 19.5179C10.6646 19.3842 12.5363 18.9831 14.007 18.0473C15.745 16.9777 16.4135 16.3093 15.745 14.9723ZM7.9907 4.14305C9.86242 4.14305 11.3331 5.61369 11.3331 7.48541C11.3331 9.35714 9.86242 10.8278 7.9907 10.8278C6.11897 10.8278 4.64833 9.22344 4.64833 7.48541C4.64833 5.61369 6.11897 4.14305 7.9907 4.14305ZM7.9907 14.1701C11.7341 14.1701 14.8091 11.0952 14.8091 7.35172C14.8091 3.74197 11.7341 0.666992 7.9907 0.666992C4.24725 0.666992 1.30597 3.74197 1.30597 7.48541C1.30597 11.2289 4.24725 14.1701 7.9907 14.1701Z" fill="#EC8225"/>
</svg>
