<svg width="20" height="20" viewBox="0 0 20 20" fill="none" xmlns="http://www.w3.org/2000/svg">
<path d="M5.66026 14.3063C8.65314 17.2943 12.2881 19.6 15.2603 19.6C16.5962 19.6 17.7664 19.1347 18.7088 18.1008C19.2577 17.4908 19.5994 16.7773 19.5994 16.0743C19.5994 15.5573 19.4027 15.061 18.9159 14.7095L15.7366 12.4555C15.2499 12.1247 14.846 11.9593 14.4732 11.9593C14.0072 11.9593 13.5826 12.2281 13.1062 12.6933L12.3709 13.4171C12.257 13.5308 12.112 13.5825 11.9774 13.5825C11.8221 13.5825 11.6667 13.5205 11.5632 13.4688C10.9211 13.1276 9.82336 12.1867 8.79812 11.1735C7.78323 10.1602 6.84084 9.06426 6.50945 8.42323C6.45767 8.30949 6.39553 8.16475 6.39553 8.00966C6.39553 7.87525 6.43695 7.74084 6.55087 7.6271L7.28615 6.87234C7.74181 6.39673 8.02142 5.98316 8.02142 5.50756C8.02142 5.13534 7.84537 4.73211 7.50362 4.24617L5.27708 1.11337C4.91462 0.617088 4.40718 0.399963 3.84796 0.399963C3.16446 0.399963 2.46026 0.710141 1.84925 1.29948C0.844721 2.26103 0.399414 3.45004 0.399414 4.76313C0.399414 7.7305 2.66738 11.3286 5.66026 14.3063Z" fill="#4F4F4F"/>
</svg>
