<svg width="28" height="23" viewBox="0 0 28 23" fill="none" xmlns="http://www.w3.org/2000/svg">
<path d="M24.9235 6.09994C25.9971 5.2948 26.9632 4.32863 27.7147 3.20143C26.7485 3.63084 25.6213 3.95289 24.4941 4.06025C25.675 3.36245 26.5338 2.28893 26.9632 0.947023C25.8897 1.59114 24.6552 2.07422 23.4206 2.34261C22.3471 1.2154 20.8978 0.571289 19.2875 0.571289C16.1743 0.571289 13.6515 3.09407 13.6515 6.2073C13.6515 6.63671 13.7052 7.06612 13.8126 7.49553C9.14272 7.22715 4.95597 4.97274 2.1648 1.59114C1.68172 2.39628 1.41333 3.36245 1.41333 4.43598C1.41333 6.36833 2.37951 8.08597 3.93612 9.10581C3.02362 9.05214 2.11113 8.83743 1.35966 8.40802V8.4617C1.35966 11.1992 3.292 13.4536 5.86846 13.9904C5.43905 14.0977 4.90229 14.2051 4.41921 14.2051C4.04347 14.2051 3.72141 14.1514 3.34568 14.0977C4.04347 16.3521 6.13685 17.9624 8.60595 18.0161C6.67361 19.519 4.25818 20.4315 1.62804 20.4315C1.14495 20.4315 0.715543 20.3778 0.286133 20.3242C2.75524 21.9344 5.70744 22.8469 8.92801 22.8469C19.2875 22.8469 24.9235 14.3124 24.9235 6.85141C24.9235 6.58303 24.9235 6.36833 24.9235 6.09994Z" fill="#00ACEE"/>
</svg>
