<svg width="300" height="50" viewBox="0 0 300 50" fill="none" xmlns="http://www.w3.org/2000/svg">
<path d="M300 0H287.793V41.0605H300V0Z" fill="#ED2224"/>
<path d="M287.826 0H275.619V41.0605H287.826V0Z" fill="#2B4DA1"/>
<path d="M74.0498 8.64139H42.9721V15.863H74.0498V8.64139Z" fill="black"/>
<path d="M74.0498 21.3407H42.9721V28.5624H74.0498V21.3407Z" fill="black"/>
<path d="M74.0498 33.9842H42.9721V41.2058H74.0498V33.9842Z" fill="black"/>
<path d="M34.409 33.9842V8.64139H25.667V33.9842H8.74199V8.64139H0V41.2059H30.9547V48.4834H39.6967V33.9842H34.409Z" fill="black"/>
<path d="M101.573 41.2058L93.3559 16.5338L85.1282 41.2058H76.4309L87.4534 8.65256H99.2473L110.326 41.2058H101.573Z" fill="black"/>
<path d="M159.893 29.848C159.893 31.2118 160.251 32.2403 160.967 32.9334C161.682 33.6265 162.699 33.9842 164.03 33.9842H185.605V41.2059H162.554C160.877 41.2059 159.334 40.9711 157.948 40.5128C156.551 40.0544 155.355 39.3725 154.36 38.467C153.365 37.5615 152.582 36.4436 152.035 35.1133C151.476 33.783 151.207 32.2626 151.207 30.5523V19.295C151.207 17.5846 151.487 16.0754 152.035 14.7563C152.582 13.4372 153.365 12.3305 154.36 11.425C155.355 10.5195 156.551 9.83754 157.948 9.35684C159.346 8.87615 160.877 8.64139 162.554 8.64139H185.605V15.863H164.03C162.699 15.863 161.682 16.2096 160.967 16.9027C160.251 17.607 159.893 18.6242 159.893 19.9881V29.848Z" fill="black"/>
<path d="M229.293 8.64139H238.035V28.8419L254.814 8.64139H263.702V41.1947H254.96V21.0054L238.135 41.2059H229.293V8.64139Z" fill="black"/>
<path d="M189.317 8.64139H198.059V28.8419L214.838 8.64139H223.726V41.1947H214.984V21.0054L198.159 41.2059H189.317V8.64139Z" fill="black"/>
<path d="M146.266 26.5837C145.651 25.4323 144.846 24.4597 143.863 23.6883C142.879 22.9058 141.728 22.3133 140.397 21.8997C139.067 21.4861 137.625 21.2849 136.071 21.2849H121.807V8.64139H113.065V21.2849V28.5065V33.973V36.3095V41.1947H136.071C137.625 41.1947 139.067 40.9935 140.397 40.6022C141.728 40.2109 142.89 39.6073 143.885 38.8247C144.88 38.031 145.685 37.0584 146.311 35.8958C146.926 34.7444 147.317 33.4141 147.474 31.9273V30.5523C147.284 29.0766 146.881 27.7463 146.266 26.5837ZM137.401 33.3358C136.608 33.7606 135.669 33.973 134.595 33.973H121.807V28.5065H134.595C135.669 28.5065 136.608 28.7189 137.401 29.1437C138.195 29.5685 138.586 30.284 138.586 31.2565C138.586 32.2179 138.195 32.911 137.401 33.3358Z" fill="black"/>
<path d="M241.992 8.64136H254.747L261.835 0.0894165H249.136L241.992 8.64136Z" fill="black"/>
</svg>
