<svg width="928" height="856" viewBox="0 0 928 856" fill="none" xmlns="http://www.w3.org/2000/svg">
<g clip-path="url(#clip0)">
<path d="M1156.5 800L925.605 874.5M773 923.739L846 900.185" stroke="#EAEAEA"/>
<path d="M988.5 581.5C988.5 619 988.5 699.7 988.5 722.5C988.5 751 981.303 818.749 943 859C913.5 890 874 903.841 834.5 899.5C801.156 895.836 786.5 890 771.5 885.5L642 844.5L640 843.835M-25.5 624.5L463 785L519.5 803.781M600.5 830.705L562.277 818" stroke="#EAEAEA"/>
<path d="M1111.5 536.5L689.5 693" stroke="#EAEAEA"/>
<path d="M1108 364.5L477 620" stroke="#EAEAEA"/>
<path d="M844.5 635.5C844.5 652.333 844.5 687.9 844.5 695.5C844.5 705 844.5 731 844 737.5C843.6 742.7 843.167 746.833 842.5 748.5C842.333 749.333 839.8 751 835 749C830.248 747.02 738.183 713.833 691.39 697M-53.5 430L573 654.5M613.5 669.079L653.5 683.5" stroke="#EAEAEA"/>
<path d="M857 466C865 446.5 876.5 415.5 911.5 395C942.208 377.014 976 371 1004.5 378C1025 383.035 1037.17 390.333 1039 392.5" stroke="#EAEAEA"/>
<path d="M837 638C837 663.167 837 715.3 837 722.5C837 729.7 836.333 743.5 836 749.5" stroke="#EAEAEA"/>
<path d="M697.5 690V699.5" stroke="#EAEAEA"/>
<path d="M712 524.5C716.333 509 733.9 472.9 769.5 452.5C805.1 432.1 847 435.5 868 441" stroke="#EAEAEA"/>
<path d="M1103 59C1100.33 63 1092.6 71.7 1083 74.5C1071 78 1059.5 79 1044.5 71C1032.5 64.6 909.833 1.33334 850 -29.5" stroke="#EAEAEA"/>
<path d="M-27 149L295 -33" stroke="#EAEAEA"/>
<path d="M-34 253L499.5 -37.5" stroke="#EAEAEA"/>
<path d="M-5.5 391L823.5 -31" stroke="#EAEAEA"/>
<path d="M291 553.5L846.5 310.275M1099.5 199.5L950.5 264.739M913.362 281L880.246 295.5" stroke="#EAEAEA"/>
<path d="M1028 72L895 134.5M126.5 494.5L790 183.542M854.101 153.5L830.5 164.561" stroke="#EAEAEA"/>
<path d="M920 51L885.5 67M55 468.5L845 86.9633" stroke="#EAEAEA"/>
<path d="M814 -25.5008C815 -9.99986 819.464 13.2586 843 42.5001C859.5 63.0001 875 67.5 885.5 67" stroke="#EAEAEA"/>
<path d="M917 52C914.833 61 905.5 79.1 885.5 81.5C860.5 84.5 835.5 61 824 45.5C812.5 30 804.5 19 794.5 -16.5" stroke="#EAEAEA"/>
<path d="M886 -11.5C890 -3.5 894.441 5.5 900 12.5C909.132 24 934 49.1799 960.5 45.9999C968.497 45.0403 974.469 41.4905 978.895 37" stroke="#EAEAEA"/>
<path d="M903 74C898 79 882.3 89.6 869.5 90C853.5 90.5 844.5 89.4999 823.5 72.5C795.5 49.8334 782.5 17 778 -7.49997" stroke="#EAEAEA"/>
<path d="M973 42C968.167 46.1666 956.3 53.5087 943.5 53.9087C927.5 54.4087 918 52.9999 897 36C874.965 18.1621 863.149 -4.11442 856.434 -26" stroke="#EAEAEA"/>
<path d="M787.5 -12.5C791.5 12 804.5 37.5 816 51.5C827.552 65.5638 846.5 82.5 862.5 84.5C875.3 86.1 886.5 85 891 83" stroke="#EAEAEA"/>
<path d="M966.5 46.4998C961 49.4085 948.63 52.0324 936 49.4085C922 46.5 905.931 36.7238 887.5 12.5C879.42 1.8811 873.899 -9.09306 870 -19.1923" stroke="#EAEAEA"/>
<path d="M922.5 121.5C918.167 119.167 906.4 115.5 894 119.5C878.5 124.5 853.101 163.506 883 224.5C908 275.5 964 296 979 252.5" stroke="#EAEAEA"/>
<path d="M880.5 126C855 134.5 836.101 172.506 866 233.5C890.02 282.5 932.5 297.5 965 271.5" stroke="#EAEAEA"/>
<path d="M960.5 274.5C937 286.5 901 282 876 231C846.101 170.006 864 132.5 883.883 124.295C885.192 123.755 886.502 123.328 887.802 123" stroke="#EAEAEA"/>
<path d="M854.5 151.5C850.167 149.5 839 147.167 826 151.5C811 156.5 797 178 802 215.5C806.368 248.259 827.888 284.549 853 298.5C871 308.5 898 315.5 913 281.5" stroke="#EAEAEA"/>
<path d="M820.032 153.779C805.032 158.779 790 185 795 222.5C799.368 255.259 820.888 288.049 846 302C857.913 308.618 874.221 313.388 888.236 306" stroke="#EAEAEA"/>
<path d="M815.012 156.046C795.5 162.55 781.5 188 786.5 225.5C790.868 258.259 815.388 293.049 840.5 307C852.414 313.618 869.2 315.655 883.216 308.267" stroke="#EAEAEA"/>
<path d="M833 163.5C820.682 167.623 808.894 185.582 813 216.5C817.449 250 842.5 280.5 856 288C866.195 293.664 873.5 296.5 881 295.5" stroke="#EAEAEA"/>
<path d="M895 134.5C883 140 874.894 157.581 879 188.5C883.448 222 910.5 253 924 260.5C934.194 266.164 943 268 951.5 264.5" stroke="#EAEAEA"/>
<path d="M535.5 636.5C544.1 633.454 554.328 632.866 562.652 635.277C593.968 644.346 607.698 691.95 593.318 741.604C578.938 791.257 541.816 824.569 510.5 815.5C506.613 814.374 501 813 493 806" stroke="#EAEAEA"/>
<path d="M343.165 861.658C350.747 868.371 356.067 869.689 359.75 870.768C389.428 879.466 424.609 847.519 438.237 799.9C440.303 792.681 441.756 785.507 442.633 778.5" stroke="#EAEAEA"/>
<path d="M517.924 820.681C506.329 868.882 471.204 902.374 439.539 894.997C435.608 894.082 429.946 893 421.601 886.626" stroke="#EAEAEA"/>
<path d="M613 667.5C623.5 662.721 632.125 660.353 640.54 662.721C672.202 671.628 686.001 718.657 671.361 767.764C656.721 816.87 619.186 849.458 587.524 840.551C583.594 839.445 579.939 837.753 576.58 835.541" stroke="#EAEAEA"/>
<path d="M519.5 803.832C544.771 803.815 571.813 776.558 583.084 737.642C592.822 704.014 587.955 671.452 572.677 654.5" stroke="#EAEAEA"/>
<path d="M370 859.5C393.949 859.484 417.857 833.422 428.538 796.101C430.579 788.967 431.944 781.883 432.673 775" stroke="#EAEAEA"/>
<path d="M507.522 817.314C498.434 855.091 472.5 885 446.5 883" stroke="#EAEAEA"/>
<path d="M600 830.5C633.5 829 654.5 796 664.048 765.463C672.485 738.481 668.632 700.268 653.3 683.5" stroke="#EAEAEA"/>
<path d="M568.5 632.706C572.247 632.791 575.966 633.347 579.62 634.405C613.854 644.32 629.377 694.586 614.291 746.679C599.205 798.771 562 831.5 526.5 823C517.5 820.845 510.406 818.63 507 816.5" stroke="#EAEAEA"/>
<path d="M356.433 871.727C359.661 873.77 366.384 875.894 374.913 877.961C408.557 886.113 443.816 854.725 458.113 804.767C460.016 798.118 461.405 791.5 462.306 785" stroke="#EAEAEA"/>
<path d="M539.077 824.664C526.912 875.232 491.673 908.169 455.874 901.514C446.799 899.826 439.617 898.001 436.11 896.103" stroke="#EAEAEA"/>
<path d="M639 662.5C698.5 669.5 707.116 723.944 692.048 774.486C676.98 825.028 636.706 858.106 602.093 848.369C598.137 847.256 589.448 843.579 586 841.5" stroke="#EAEAEA"/>
<path d="M530.5 639.095C543.209 631.849 556.735 629.381 569.462 633.067C603.246 642.851 618.613 692.29 603.785 743.491C588.957 794.693 547.784 828.784 514 819C501.25 815.308 489.982 806.5 485 792.5" stroke="#EAEAEA"/>
<path d="M335.584 848.711C340.305 862.137 350.984 870.584 363.067 874.125C395.084 883.508 434.104 850.814 448.157 801.71C450.103 794.909 451.501 788.14 452.379 781.5" stroke="#EAEAEA"/>
<path d="M412.5 873C418 886.5 430.322 895.202 443.214 898.205C477.042 906.086 515.727 872.421 528.089 823.5" stroke="#EAEAEA"/>
<path d="M640 662.5C685.5 670.5 697.922 721.19 683.019 771.177C668.117 821.163 627.939 853.781 593.279 844.03C580.199 840.35 569.774 831.162 562.664 818.46" stroke="#EAEAEA"/>
<path d="M609.5 933.5L489.5 896.397M-5 743.5L370.5 859.603M411 872.125L446.5 883.101" stroke="#EAEAEA"/>
<path d="M98 775L-12.5 820" stroke="#EAEAEA"/>
<path d="M306.5 840L26 941" stroke="#EAEAEA"/>
</g>
<defs>
<clipPath id="clip0">
<rect width="928" height="856" fill="white" transform="matrix(1 0 0 -1 0 856)"/>
</clipPath>
</defs>
</svg>
