<?xml version="1.0" standalone="no"?>
<!DOCTYPE svg PUBLIC "-//W3C//DTD SVG 20010904//EN"
 "http://www.w3.org/TR/2001/REC-SVG-20010904/DTD/svg10.dtd">
<svg version="1.0" xmlns="http://www.w3.org/2000/svg"
 width="520.000000pt" height="520.000000pt" viewBox="0 0 520.000000 520.000000"
 preserveAspectRatio="xMidYMid meet">
<metadata>
Created by potrace 1.11, written by Peter Selinger 2001-2013
</metadata>
<g transform="translate(0.000000,520.000000) scale(0.100000,-0.100000)"
fill="#000000" stroke="none">
<path d="M10 2611 l0 -2590 863 0 863 1 -1 124 c-1 69 2 127 5 129 4 2 7 -51
8 -118 0 -67 1 -130 1 -139 1 -17 90 -18 1721 -18 l1720 0 0 2589 0 2590
-1720 0 -1720 0 -1 -42 c-1 -23 -1 -61 0 -84 0 -24 -3 -43 -7 -43 -5 0 -8 42
-8 93 l1 92 -862 3 -863 2 0 -2589z m1740 2379 c0 -5 -2 -10 -4 -10 -3 0 -8 5
-11 10 -3 6 -1 10 4 10 6 0 11 -4 11 -10z m-2 -60 c0 -22 -4 -40 -8 -40 -4 0
-7 18 -6 40 0 22 4 40 8 40 4 0 6 -18 6 -40z m2 -60 c0 -5 -2 -10 -4 -10 -3 0
-8 5 -11 10 -3 6 -1 10 4 10 6 0 11 -4 11 -10z m-2 -60 c0 -22 -4 -40 -8 -40
-4 0 -7 18 -6 40 0 22 4 40 8 40 4 0 6 -18 6 -40z m-1 -245 c0 -107 -3 -195
-6 -195 -5 0 -7 378 -2 388 6 12 8 -24 8 -193z m3 -215 c0 -5 -2 -10 -4 -10
-3 0 -8 5 -11 10 -3 6 -1 10 4 10 6 0 11 -4 11 -10z m-2 -60 c0 -22 -4 -40 -8
-40 -4 0 -7 18 -6 40 0 22 4 40 8 40 4 0 6 -18 6 -40z m2 -60 c0 -5 -2 -10 -4
-10 -3 0 -8 5 -11 10 -3 6 -1 10 4 10 6 0 11 -4 11 -10z m-2 -60 c0 -22 -4
-40 -8 -40 -4 0 -7 18 -6 40 0 22 4 40 8 40 4 0 6 -18 6 -40z m-1 -165 c0 -63
-2 -115 -6 -115 -5 0 -7 217 -2 228 6 11 8 -14 8 -113z m3 -135 c0 -5 -2 -10
-4 -10 -3 0 -8 5 -11 10 -3 6 -1 10 4 10 6 0 11 -4 11 -10z m-2 -60 c0 -22 -4
-40 -8 -40 -4 0 -7 18 -6 40 0 22 4 40 8 40 4 0 6 -18 6 -40z m2 -60 c0 -5 -2
-10 -4 -10 -3 0 -8 5 -11 10 -3 6 -1 10 4 10 6 0 11 -4 11 -10z m-2 -60 c0
-22 -4 -40 -8 -40 -4 0 -7 18 -6 40 0 22 4 40 8 40 4 0 6 -18 6 -40z m0 -85
c2 -19 -2 -35 -7 -35 -7 0 -9 48 -2 68 4 10 7 -3 9 -33z m2 -55 c0 -5 -2 -10
-4 -10 -3 0 -8 5 -11 10 -3 6 -1 10 4 10 6 0 11 -4 11 -10z m-2 -60 c0 -22 -4
-40 -8 -40 -4 0 -7 18 -6 40 0 22 4 40 8 40 4 0 6 -18 6 -40z m2 -60 c0 -5 -2
-10 -4 -10 -3 0 -8 5 -11 10 -3 6 -1 10 4 10 6 0 11 -4 11 -10z m-2 -60 c0
-22 -4 -40 -8 -40 -4 0 -7 18 -6 40 0 22 4 40 8 40 4 0 6 -18 6 -40z m0 -105
c0 -30 -3 -55 -7 -55 -6 0 -8 93 -2 108 5 11 8 -7 9 -53z m2 -75 c0 -5 -2 -10
-4 -10 -3 0 -8 5 -11 10 -3 6 -1 10 4 10 6 0 11 -4 11 -10z m-1 -80 c-1 -33
-5 -60 -8 -60 -4 0 -7 27 -7 60 1 33 4 60 9 60 4 0 6 -27 6 -60z m1 -80 c0 -5
-2 -10 -4 -10 -3 0 -8 5 -11 10 -3 6 -1 10 4 10 6 0 11 -4 11 -10z m-2 -140
c-1 -66 -4 -120 -7 -120 -4 0 -6 54 -6 120 0 66 3 120 7 120 3 0 6 -54 6 -120z
m2 -140 c0 -5 -2 -10 -4 -10 -3 0 -8 5 -11 10 -3 6 -1 10 4 10 6 0 11 -4 11
-10z m-2 -60 c0 -22 -4 -40 -8 -40 -4 0 -7 18 -6 40 0 22 4 40 8 40 4 0 6 -18
6 -40z m2 -60 c0 -5 -2 -10 -4 -10 -3 0 -8 5 -11 10 -3 6 -1 10 4 10 6 0 11
-4 11 -10z m-2 -60 c0 -22 -4 -40 -8 -40 -4 0 -7 18 -6 40 0 22 4 40 8 40 4 0
6 -18 6 -40z m-1 -185 c0 -74 -2 -135 -6 -135 -5 0 -7 257 -2 268 6 12 8 -17
8 -133z m3 -155 c0 -5 -2 -10 -4 -10 -3 0 -8 5 -11 10 -3 6 -1 10 4 10 6 0 11
-4 11 -10z m-1 -80 c-1 -33 -5 -60 -8 -60 -4 0 -7 27 -7 60 1 33 4 60 9 60 4
0 6 -27 6 -60z m1 -80 c0 -5 -2 -10 -4 -10 -3 0 -8 5 -11 10 -3 6 -1 10 4 10
6 0 11 -4 11 -10z m0 -60 c0 -22 -4 -40 -8 -40 -4 0 -8 18 -8 40 1 22 4 40 9
40 4 0 7 -18 7 -40z m0 -60 c0 -5 -2 -10 -4 -10 -3 0 -8 5 -11 10 -3 6 -1 10
4 10 6 0 11 -4 11 -10z m-2 -60 c0 -22 -4 -40 -8 -40 -4 0 -7 18 -6 40 0 22 4
40 8 40 4 0 6 -18 6 -40z m2 -60 c0 -5 -2 -10 -4 -10 -3 0 -8 5 -11 10 -3 6
-1 10 4 10 6 0 11 -4 11 -10z m-2 -60 c0 -22 -4 -40 -8 -40 -4 0 -7 18 -6 40
0 22 4 40 8 40 4 0 6 -18 6 -40z m0 -85 c2 -19 -2 -35 -7 -35 -7 0 -9 48 -2
68 4 10 7 -3 9 -33z m2 -55 c0 -5 -2 -10 -4 -10 -3 0 -8 5 -11 10 -3 6 -1 10
4 10 6 0 11 -4 11 -10z m-2 -60 c0 -22 -4 -40 -8 -40 -4 0 -7 18 -6 40 0 22 4
40 8 40 4 0 6 -18 6 -40z m2 -60 c0 -5 -2 -10 -4 -10 -3 0 -8 5 -11 10 -3 6
-1 10 4 10 6 0 11 -4 11 -10z m-2 -60 c0 -22 -4 -40 -8 -40 -4 0 -7 18 -6 40
0 22 4 40 8 40 4 0 6 -18 6 -40z m-1 -165 c0 -63 -2 -115 -6 -115 -5 0 -7 217
-2 228 6 11 8 -14 8 -113z m3 -135 c0 -5 -2 -10 -4 -10 -3 0 -8 5 -11 10 -3 6
-1 10 4 10 6 0 11 -4 11 -10z m-2 -60 c0 -22 -4 -40 -8 -40 -4 0 -7 18 -6 40
0 22 4 40 8 40 4 0 6 -18 6 -40z m2 -60 c0 -5 -2 -10 -4 -10 -3 0 -8 5 -11 10
-3 6 -1 10 4 10 6 0 11 -4 11 -10z m-2 -60 c0 -22 -4 -40 -8 -40 -4 0 -7 18
-6 40 0 22 4 40 8 40 4 0 6 -18 6 -40z m-1 -245 c0 -107 -3 -195 -6 -195 -5 0
-7 378 -2 388 6 12 8 -24 8 -193z m3 -215 c0 -5 -2 -10 -4 -10 -3 0 -8 5 -11
10 -3 6 -1 10 4 10 6 0 11 -4 11 -10z m-2 -60 c0 -22 -4 -40 -8 -40 -4 0 -7
18 -6 40 0 22 4 40 8 40 4 0 6 -18 6 -40z m2 -60 c0 -5 -2 -10 -4 -10 -3 0 -8
5 -11 10 -3 6 -1 10 4 10 6 0 11 -4 11 -10z m-2 -60 c0 -22 -4 -40 -8 -40 -4
0 -7 18 -6 40 0 22 4 40 8 40 4 0 6 -18 6 -40z"/>
</g>
</svg>
